…
``` r
glance(rate_bank_fit)
```

    ## # A tibble: 1 x 12
    ##   r.squared adj.r.squared sigma statistic p.value    df  logLik    AIC    BIC
    ##       <dbl>         <dbl> <dbl>     <dbl>   <dbl> <dbl>   <dbl>  <dbl>  <dbl>
    ## 1   0.00232       0.00222  5.00      23.2 1.47e-6     1 -30274. 60554. 60575.
    ## # … with 3 more variables: deviance <dbl>, df.residual <int>, nobs <int>

``` r
augment(rate_bank_fit$fit)
```

    ## # A tibble: 10,000 x 8
    ##    interest_rate bankruptcy .fitted .resid .std.resid     .hat .sigma    .cooksd
    ##            <dbl> <fct>        <dbl>  <dbl>      <dbl>    <dbl>  <dbl>      <dbl>
    ##  1         14.1  0             12.3  1.73      0.347  0.000114   5.00    6.84e-6
    ##  2         12.6  1             13.1 -0.465    -0.0931 0.000823   5.00    3.57e-6
    ##  3         17.1  0             12.3  4.75      0.951  0.000114   5.00    5.15e-5
    ##  4          6.72 0             12.3 -5.62     -1.12   0.000114   5.00    7.20e-5
    ##  5         14.1  0             12.3  1.73      0.347  0.000114   5.00    6.84e-6
    ##  6          6.72 0             12.3 -5.62     -1.12   0.000114   5.00    7.20e-5
    ##  7         13.6  0             12.3  1.25      0.251  0.000114   5.00    3.58e-6
    ##  8         12.0  0             12.3 -0.348    -0.0697 0.000114   5.00    2.76e-7
    ##  9         13.6  0             12.3  1.25      0.251  0.000114   5.00    3.58e-6
    ## 10          6.71 0             12.3 -5.63     -1.13   0.000114   5.00    7.23e-5
    ## # … with 9,990 more rows
…
