…
| skim\_variable      | n\_missing | complete\_rate |    mean |     sd |   p0 |     p25 |    p50 |  p75 | p100 | hist  |
|:--------------------|-----------:|---------------:|--------:|-------:|-----:|--------:|-------:|-----:|-----:|:------|
| height\_metres      |          0 |           1.00 | 6656.64 | 571.91 | 5407 | 6235.75 | 6559.5 | 6911 | 8850 | ▂▇▃▁▁ |
| first\_ascent\_year |        132 |           0.72 | 1979.08 | 100.21 |  201 | 1963.00 | 1982.0 | 2008 | 2019 | ▁▁▁▁▇ |

Popular peaks
-------------

    members %>%
      count(peak_name) %>%
      arrange(desc(n)) %>%
      mutate(proportion = n / sum(n))

    ## # A tibble: 391 x 3
    ##    peak_name        n proportion
    ##    <chr>        <int>      <dbl>
    ##  1 Everest      21813     0.285 
    ##  2 Cho Oyu       8890     0.116 
    ##  3 Ama Dablam    8406     0.110 
    ##  4 Manaslu       4593     0.0600
    ##  5 Dhaulagiri I  2592     0.0339
    ##  6 Makalu        2405     0.0314
    ##  7 Lhotse        2379     0.0311
    ##  8 Baruntse      2190     0.0286
    ##  9 Pumori        1780     0.0233
    ## 10 Annapurna I   1669     0.0218
    ## # … with 381 more rows
…
