…
<img src="ukbabynames_files/figure-gfm/rank-rep-1.png" width="80%" />

Why does the y-axis go up until 6000? How can we fix this?

``` r
ukbabynames %>%
  filter(name %in% popular_IDS_names) %>%
  arrange(desc(rank))
```

    ## # A tibble: 111 x 5
    ##     year sex   name      n  rank
    ##    <dbl> <chr> <chr> <dbl> <dbl>
    ##  1  2016 F     James     3  5785
    ##  2  2016 F     Alex     23  1416
    ##  3  2017 F     Alex     23  1411
    ##  4  2015 F     Alex     28  1204
    ##  5  2014 F     Alex     29  1177
    ##  6  2012 F     Alex     40   916
    ##  7  2013 F     Alex     42   882
    ##  8  2010 F     Alex     55   674
    ##  9  2011 F     Alex     61   652
    ## 10  2009 F     Alex     82   495
    ## # … with 101 more rows
…
<img src="ukbabynames_files/figure-gfm/jude-plot-1.png" width="80%" />

## When was the last person called Gary born

In this dataset, what is the birth year of the youngest person named
Gary?

``` r
ukbabynames %>%
  filter(name == "Gary") %>%
  arrange(desc(year))
```

    ## # A tibble: 22 x 5
    ##     year sex   name      n  rank
    ##    <dbl> <chr> <chr> <dbl> <dbl>
    ##  1  2017 M     Gary     26  1097
    ##  2  2016 M     Gary     27  1050
    ##  3  2015 M     Gary     23  1159
    ##  4  2014 M     Gary     33   889
    ##  5  2013 M     Gary     28  1001
    ##  6  2012 M     Gary     29   977
    ##  7  2011 M     Gary     26  1024
    ##  8  2010 M     Gary     32   897
    ##  9  2009 M     Gary     57   576
    ## 10  2008 M     Gary     39   746
    ## # … with 12 more rows
…
